('C:\\Users\\wsooi11962\\PycharmProjects\\Script\\Register '
 'Scipt\\build\\register\\PYZ-00.pyz',
 [('__future__',
   'C:\\Program '
   'Files\\WindowsApps\\PythonSoftwareFoundation.Python.3.11_3.11.2032.0_x64__qbz5n2kfra8p0\\Lib\\__future__.py',
   'PYMODULE'),
  ('_compat_pickle',
   'C:\\Program '
   'Files\\WindowsApps\\PythonSoftwareFoundation.Python.3.11_3.11.2032.0_x64__qbz5n2kfra8p0\\Lib\\_compat_pickle.py',
   'PYMODULE'),
  ('_compression',
   'C:\\Program '
   'Files\\WindowsApps\\PythonSoftwareFoundation.Python.3.11_3.11.2032.0_x64__qbz5n2kfra8p0\\Lib\\_compression.py',
   'PYMODULE'),
  ('_py_abc',
   'C:\\Program '
   'Files\\WindowsApps\\PythonSoftwareFoundation.Python.3.11_3.11.2032.0_x64__qbz5n2kfra8p0\\Lib\\_py_abc.py',
   'PYMODULE'),
  ('_pydecimal',
   'C:\\Program '
   'Files\\WindowsApps\\PythonSoftwareFoundation.Python.3.11_3.11.2032.0_x64__qbz5n2kfra8p0\\Lib\\_pydecimal.py',
   'PYMODULE'),
  ('_pyi_rth_utils',
   'C:\\Users\\wsooi11962\\AppData\\Local\\Packages\\PythonSoftwareFoundation.Python.3.11_qbz5n2kfra8p0\\LocalCache\\local-packages\\Python311\\site-packages\\PyInstaller\\fake-modules\\_pyi_rth_utils\\__init__.py',
   'PYMODULE'),
  ('_strptime',
   'C:\\Program '
   'Files\\WindowsApps\\PythonSoftwareFoundation.Python.3.11_3.11.2032.0_x64__qbz5n2kfra8p0\\Lib\\_strptime.py',
   'PYMODULE'),
  ('_threading_local',
   'C:\\Program '
   'Files\\WindowsApps\\PythonSoftwareFoundation.Python.3.11_3.11.2032.0_x64__qbz5n2kfra8p0\\Lib\\_threading_local.py',
   'PYMODULE'),
  ('argparse',
   'C:\\Program '
   'Files\\WindowsApps\\PythonSoftwareFoundation.Python.3.11_3.11.2032.0_x64__qbz5n2kfra8p0\\Lib\\argparse.py',
   'PYMODULE'),
  ('ast',
   'C:\\Program '
   'Files\\WindowsApps\\PythonSoftwareFoundation.Python.3.11_3.11.2032.0_x64__qbz5n2kfra8p0\\Lib\\ast.py',
   'PYMODULE'),
  ('base64',
   'C:\\Program '
   'Files\\WindowsApps\\PythonSoftwareFoundation.Python.3.11_3.11.2032.0_x64__qbz5n2kfra8p0\\Lib\\base64.py',
   'PYMODULE'),
  ('bisect',
   'C:\\Program '
   'Files\\WindowsApps\\PythonSoftwareFoundation.Python.3.11_3.11.2032.0_x64__qbz5n2kfra8p0\\Lib\\bisect.py',
   'PYMODULE'),
  ('bz2',
   'C:\\Program '
   'Files\\WindowsApps\\PythonSoftwareFoundation.Python.3.11_3.11.2032.0_x64__qbz5n2kfra8p0\\Lib\\bz2.py',
   'PYMODULE'),
  ('calendar',
   'C:\\Program '
   'Files\\WindowsApps\\PythonSoftwareFoundation.Python.3.11_3.11.2032.0_x64__qbz5n2kfra8p0\\Lib\\calendar.py',
   'PYMODULE'),
  ('certifi',
   'C:\\Users\\wsooi11962\\AppData\\Local\\Packages\\PythonSoftwareFoundation.Python.3.11_qbz5n2kfra8p0\\LocalCache\\local-packages\\Python311\\site-packages\\certifi\\__init__.py',
   'PYMODULE'),
  ('certifi.core',
   'C:\\Users\\wsooi11962\\AppData\\Local\\Packages\\PythonSoftwareFoundation.Python.3.11_qbz5n2kfra8p0\\LocalCache\\local-packages\\Python311\\site-packages\\certifi\\core.py',
   'PYMODULE'),
  ('contextlib',
   'C:\\Program '
   'Files\\WindowsApps\\PythonSoftwareFoundation.Python.3.11_3.11.2032.0_x64__qbz5n2kfra8p0\\Lib\\contextlib.py',
   'PYMODULE'),
  ('contextvars',
   'C:\\Program '
   'Files\\WindowsApps\\PythonSoftwareFoundation.Python.3.11_3.11.2032.0_x64__qbz5n2kfra8p0\\Lib\\contextvars.py',
   'PYMODULE'),
  ('copy',
   'C:\\Program '
   'Files\\WindowsApps\\PythonSoftwareFoundation.Python.3.11_3.11.2032.0_x64__qbz5n2kfra8p0\\Lib\\copy.py',
   'PYMODULE'),
  ('create_user',
   'C:\\Users\\wsooi11962\\PycharmProjects\\Script\\Register '
   'Scipt\\create_user.py',
   'PYMODULE'),
  ('csv',
   'C:\\Program '
   'Files\\WindowsApps\\PythonSoftwareFoundation.Python.3.11_3.11.2032.0_x64__qbz5n2kfra8p0\\Lib\\csv.py',
   'PYMODULE'),
  ('dataclasses',
   'C:\\Program '
   'Files\\WindowsApps\\PythonSoftwareFoundation.Python.3.11_3.11.2032.0_x64__qbz5n2kfra8p0\\Lib\\dataclasses.py',
   'PYMODULE'),
  ('datetime',
   'C:\\Program '
   'Files\\WindowsApps\\PythonSoftwareFoundation.Python.3.11_3.11.2032.0_x64__qbz5n2kfra8p0\\Lib\\datetime.py',
   'PYMODULE'),
  ('decimal',
   'C:\\Program '
   'Files\\WindowsApps\\PythonSoftwareFoundation.Python.3.11_3.11.2032.0_x64__qbz5n2kfra8p0\\Lib\\decimal.py',
   'PYMODULE'),
  ('dis',
   'C:\\Program '
   'Files\\WindowsApps\\PythonSoftwareFoundation.Python.3.11_3.11.2032.0_x64__qbz5n2kfra8p0\\Lib\\dis.py',
   'PYMODULE'),
  ('email',
   'C:\\Program '
   'Files\\WindowsApps\\PythonSoftwareFoundation.Python.3.11_3.11.2032.0_x64__qbz5n2kfra8p0\\Lib\\email\\__init__.py',
   'PYMODULE'),
  ('email._encoded_words',
   'C:\\Program '
   'Files\\WindowsApps\\PythonSoftwareFoundation.Python.3.11_3.11.2032.0_x64__qbz5n2kfra8p0\\Lib\\email\\_encoded_words.py',
   'PYMODULE'),
  ('email._header_value_parser',
   'C:\\Program '
   'Files\\WindowsApps\\PythonSoftwareFoundation.Python.3.11_3.11.2032.0_x64__qbz5n2kfra8p0\\Lib\\email\\_header_value_parser.py',
   'PYMODULE'),
  ('email._parseaddr',
   'C:\\Program '
   'Files\\WindowsApps\\PythonSoftwareFoundation.Python.3.11_3.11.2032.0_x64__qbz5n2kfra8p0\\Lib\\email\\_parseaddr.py',
   'PYMODULE'),
  ('email._policybase',
   'C:\\Program '
   'Files\\WindowsApps\\PythonSoftwareFoundation.Python.3.11_3.11.2032.0_x64__qbz5n2kfra8p0\\Lib\\email\\_policybase.py',
   'PYMODULE'),
  ('email.base64mime',
   'C:\\Program '
   'Files\\WindowsApps\\PythonSoftwareFoundation.Python.3.11_3.11.2032.0_x64__qbz5n2kfra8p0\\Lib\\email\\base64mime.py',
   'PYMODULE'),
  ('email.charset',
   'C:\\Program '
   'Files\\WindowsApps\\PythonSoftwareFoundation.Python.3.11_3.11.2032.0_x64__qbz5n2kfra8p0\\Lib\\email\\charset.py',
   'PYMODULE'),
  ('email.contentmanager',
   'C:\\Program '
   'Files\\WindowsApps\\PythonSoftwareFoundation.Python.3.11_3.11.2032.0_x64__qbz5n2kfra8p0\\Lib\\email\\contentmanager.py',
   'PYMODULE'),
  ('email.encoders',
   'C:\\Program '
   'Files\\WindowsApps\\PythonSoftwareFoundation.Python.3.11_3.11.2032.0_x64__qbz5n2kfra8p0\\Lib\\email\\encoders.py',
   'PYMODULE'),
  ('email.errors',
   'C:\\Program '
   'Files\\WindowsApps\\PythonSoftwareFoundation.Python.3.11_3.11.2032.0_x64__qbz5n2kfra8p0\\Lib\\email\\errors.py',
   'PYMODULE'),
  ('email.feedparser',
   'C:\\Program '
   'Files\\WindowsApps\\PythonSoftwareFoundation.Python.3.11_3.11.2032.0_x64__qbz5n2kfra8p0\\Lib\\email\\feedparser.py',
   'PYMODULE'),
  ('email.generator',
   'C:\\Program '
   'Files\\WindowsApps\\PythonSoftwareFoundation.Python.3.11_3.11.2032.0_x64__qbz5n2kfra8p0\\Lib\\email\\generator.py',
   'PYMODULE'),
  ('email.header',
   'C:\\Program '
   'Files\\WindowsApps\\PythonSoftwareFoundation.Python.3.11_3.11.2032.0_x64__qbz5n2kfra8p0\\Lib\\email\\header.py',
   'PYMODULE'),
  ('email.headerregistry',
   'C:\\Program '
   'Files\\WindowsApps\\PythonSoftwareFoundation.Python.3.11_3.11.2032.0_x64__qbz5n2kfra8p0\\Lib\\email\\headerregistry.py',
   'PYMODULE'),
  ('email.iterators',
   'C:\\Program '
   'Files\\WindowsApps\\PythonSoftwareFoundation.Python.3.11_3.11.2032.0_x64__qbz5n2kfra8p0\\Lib\\email\\iterators.py',
   'PYMODULE'),
  ('email.message',
   'C:\\Program '
   'Files\\WindowsApps\\PythonSoftwareFoundation.Python.3.11_3.11.2032.0_x64__qbz5n2kfra8p0\\Lib\\email\\message.py',
   'PYMODULE'),
  ('email.parser',
   'C:\\Program '
   'Files\\WindowsApps\\PythonSoftwareFoundation.Python.3.11_3.11.2032.0_x64__qbz5n2kfra8p0\\Lib\\email\\parser.py',
   'PYMODULE'),
  ('email.policy',
   'C:\\Program '
   'Files\\WindowsApps\\PythonSoftwareFoundation.Python.3.11_3.11.2032.0_x64__qbz5n2kfra8p0\\Lib\\email\\policy.py',
   'PYMODULE'),
  ('email.quoprimime',
   'C:\\Program '
   'Files\\WindowsApps\\PythonSoftwareFoundation.Python.3.11_3.11.2032.0_x64__qbz5n2kfra8p0\\Lib\\email\\quoprimime.py',
   'PYMODULE'),
  ('email.utils',
   'C:\\Program '
   'Files\\WindowsApps\\PythonSoftwareFoundation.Python.3.11_3.11.2032.0_x64__qbz5n2kfra8p0\\Lib\\email\\utils.py',
   'PYMODULE'),
  ('fnmatch',
   'C:\\Program '
   'Files\\WindowsApps\\PythonSoftwareFoundation.Python.3.11_3.11.2032.0_x64__qbz5n2kfra8p0\\Lib\\fnmatch.py',
   'PYMODULE'),
  ('fractions',
   'C:\\Program '
   'Files\\WindowsApps\\PythonSoftwareFoundation.Python.3.11_3.11.2032.0_x64__qbz5n2kfra8p0\\Lib\\fractions.py',
   'PYMODULE'),
  ('ftplib',
   'C:\\Program '
   'Files\\WindowsApps\\PythonSoftwareFoundation.Python.3.11_3.11.2032.0_x64__qbz5n2kfra8p0\\Lib\\ftplib.py',
   'PYMODULE'),
  ('getopt',
   'C:\\Program '
   'Files\\WindowsApps\\PythonSoftwareFoundation.Python.3.11_3.11.2032.0_x64__qbz5n2kfra8p0\\Lib\\getopt.py',
   'PYMODULE'),
  ('getpass',
   'C:\\Program '
   'Files\\WindowsApps\\PythonSoftwareFoundation.Python.3.11_3.11.2032.0_x64__qbz5n2kfra8p0\\Lib\\getpass.py',
   'PYMODULE'),
  ('gettext',
   'C:\\Program '
   'Files\\WindowsApps\\PythonSoftwareFoundation.Python.3.11_3.11.2032.0_x64__qbz5n2kfra8p0\\Lib\\gettext.py',
   'PYMODULE'),
  ('gzip',
   'C:\\Program '
   'Files\\WindowsApps\\PythonSoftwareFoundation.Python.3.11_3.11.2032.0_x64__qbz5n2kfra8p0\\Lib\\gzip.py',
   'PYMODULE'),
  ('hashlib',
   'C:\\Program '
   'Files\\WindowsApps\\PythonSoftwareFoundation.Python.3.11_3.11.2032.0_x64__qbz5n2kfra8p0\\Lib\\hashlib.py',
   'PYMODULE'),
  ('hmac',
   'C:\\Program '
   'Files\\WindowsApps\\PythonSoftwareFoundation.Python.3.11_3.11.2032.0_x64__qbz5n2kfra8p0\\Lib\\hmac.py',
   'PYMODULE'),
  ('http',
   'C:\\Program '
   'Files\\WindowsApps\\PythonSoftwareFoundation.Python.3.11_3.11.2032.0_x64__qbz5n2kfra8p0\\Lib\\http\\__init__.py',
   'PYMODULE'),
  ('http.client',
   'C:\\Program '
   'Files\\WindowsApps\\PythonSoftwareFoundation.Python.3.11_3.11.2032.0_x64__qbz5n2kfra8p0\\Lib\\http\\client.py',
   'PYMODULE'),
  ('http.cookiejar',
   'C:\\Program '
   'Files\\WindowsApps\\PythonSoftwareFoundation.Python.3.11_3.11.2032.0_x64__qbz5n2kfra8p0\\Lib\\http\\cookiejar.py',
   'PYMODULE'),
  ('idna',
   'C:\\Users\\wsooi11962\\AppData\\Local\\Packages\\PythonSoftwareFoundation.Python.3.11_qbz5n2kfra8p0\\LocalCache\\local-packages\\Python311\\site-packages\\idna\\__init__.py',
   'PYMODULE'),
  ('idna.core',
   'C:\\Users\\wsooi11962\\AppData\\Local\\Packages\\PythonSoftwareFoundation.Python.3.11_qbz5n2kfra8p0\\LocalCache\\local-packages\\Python311\\site-packages\\idna\\core.py',
   'PYMODULE'),
  ('idna.idnadata',
   'C:\\Users\\wsooi11962\\AppData\\Local\\Packages\\PythonSoftwareFoundation.Python.3.11_qbz5n2kfra8p0\\LocalCache\\local-packages\\Python311\\site-packages\\idna\\idnadata.py',
   'PYMODULE'),
  ('idna.intranges',
   'C:\\Users\\wsooi11962\\AppData\\Local\\Packages\\PythonSoftwareFoundation.Python.3.11_qbz5n2kfra8p0\\LocalCache\\local-packages\\Python311\\site-packages\\idna\\intranges.py',
   'PYMODULE'),
  ('idna.package_data',
   'C:\\Users\\wsooi11962\\AppData\\Local\\Packages\\PythonSoftwareFoundation.Python.3.11_qbz5n2kfra8p0\\LocalCache\\local-packages\\Python311\\site-packages\\idna\\package_data.py',
   'PYMODULE'),
  ('idna.uts46data',
   'C:\\Users\\wsooi11962\\AppData\\Local\\Packages\\PythonSoftwareFoundation.Python.3.11_qbz5n2kfra8p0\\LocalCache\\local-packages\\Python311\\site-packages\\idna\\uts46data.py',
   'PYMODULE'),
  ('importlib',
   'C:\\Program '
   'Files\\WindowsApps\\PythonSoftwareFoundation.Python.3.11_3.11.2032.0_x64__qbz5n2kfra8p0\\Lib\\importlib\\__init__.py',
   'PYMODULE'),
  ('importlib._abc',
   'C:\\Program '
   'Files\\WindowsApps\\PythonSoftwareFoundation.Python.3.11_3.11.2032.0_x64__qbz5n2kfra8p0\\Lib\\importlib\\_abc.py',
   'PYMODULE'),
  ('importlib._bootstrap',
   'C:\\Program '
   'Files\\WindowsApps\\PythonSoftwareFoundation.Python.3.11_3.11.2032.0_x64__qbz5n2kfra8p0\\Lib\\importlib\\_bootstrap.py',
   'PYMODULE'),
  ('importlib._bootstrap_external',
   'C:\\Program '
   'Files\\WindowsApps\\PythonSoftwareFoundation.Python.3.11_3.11.2032.0_x64__qbz5n2kfra8p0\\Lib\\importlib\\_bootstrap_external.py',
   'PYMODULE'),
  ('importlib.abc',
   'C:\\Program '
   'Files\\WindowsApps\\PythonSoftwareFoundation.Python.3.11_3.11.2032.0_x64__qbz5n2kfra8p0\\Lib\\importlib\\abc.py',
   'PYMODULE'),
  ('importlib.machinery',
   'C:\\Program '
   'Files\\WindowsApps\\PythonSoftwareFoundation.Python.3.11_3.11.2032.0_x64__qbz5n2kfra8p0\\Lib\\importlib\\machinery.py',
   'PYMODULE'),
  ('importlib.metadata',
   'C:\\Program '
   'Files\\WindowsApps\\PythonSoftwareFoundation.Python.3.11_3.11.2032.0_x64__qbz5n2kfra8p0\\Lib\\importlib\\metadata\\__init__.py',
   'PYMODULE'),
  ('importlib.metadata._adapters',
   'C:\\Program '
   'Files\\WindowsApps\\PythonSoftwareFoundation.Python.3.11_3.11.2032.0_x64__qbz5n2kfra8p0\\Lib\\importlib\\metadata\\_adapters.py',
   'PYMODULE'),
  ('importlib.metadata._collections',
   'C:\\Program '
   'Files\\WindowsApps\\PythonSoftwareFoundation.Python.3.11_3.11.2032.0_x64__qbz5n2kfra8p0\\Lib\\importlib\\metadata\\_collections.py',
   'PYMODULE'),
  ('importlib.metadata._functools',
   'C:\\Program '
   'Files\\WindowsApps\\PythonSoftwareFoundation.Python.3.11_3.11.2032.0_x64__qbz5n2kfra8p0\\Lib\\importlib\\metadata\\_functools.py',
   'PYMODULE'),
  ('importlib.metadata._itertools',
   'C:\\Program '
   'Files\\WindowsApps\\PythonSoftwareFoundation.Python.3.11_3.11.2032.0_x64__qbz5n2kfra8p0\\Lib\\importlib\\metadata\\_itertools.py',
   'PYMODULE'),
  ('importlib.metadata._meta',
   'C:\\Program '
   'Files\\WindowsApps\\PythonSoftwareFoundation.Python.3.11_3.11.2032.0_x64__qbz5n2kfra8p0\\Lib\\importlib\\metadata\\_meta.py',
   'PYMODULE'),
  ('importlib.metadata._text',
   'C:\\Program '
   'Files\\WindowsApps\\PythonSoftwareFoundation.Python.3.11_3.11.2032.0_x64__qbz5n2kfra8p0\\Lib\\importlib\\metadata\\_text.py',
   'PYMODULE'),
  ('importlib.readers',
   'C:\\Program '
   'Files\\WindowsApps\\PythonSoftwareFoundation.Python.3.11_3.11.2032.0_x64__qbz5n2kfra8p0\\Lib\\importlib\\readers.py',
   'PYMODULE'),
  ('importlib.resources',
   'C:\\Program '
   'Files\\WindowsApps\\PythonSoftwareFoundation.Python.3.11_3.11.2032.0_x64__qbz5n2kfra8p0\\Lib\\importlib\\resources\\__init__.py',
   'PYMODULE'),
  ('importlib.resources._adapters',
   'C:\\Program '
   'Files\\WindowsApps\\PythonSoftwareFoundation.Python.3.11_3.11.2032.0_x64__qbz5n2kfra8p0\\Lib\\importlib\\resources\\_adapters.py',
   'PYMODULE'),
  ('importlib.resources._common',
   'C:\\Program '
   'Files\\WindowsApps\\PythonSoftwareFoundation.Python.3.11_3.11.2032.0_x64__qbz5n2kfra8p0\\Lib\\importlib\\resources\\_common.py',
   'PYMODULE'),
  ('importlib.resources._itertools',
   'C:\\Program '
   'Files\\WindowsApps\\PythonSoftwareFoundation.Python.3.11_3.11.2032.0_x64__qbz5n2kfra8p0\\Lib\\importlib\\resources\\_itertools.py',
   'PYMODULE'),
  ('importlib.resources._legacy',
   'C:\\Program '
   'Files\\WindowsApps\\PythonSoftwareFoundation.Python.3.11_3.11.2032.0_x64__qbz5n2kfra8p0\\Lib\\importlib\\resources\\_legacy.py',
   'PYMODULE'),
  ('importlib.resources.abc',
   'C:\\Program '
   'Files\\WindowsApps\\PythonSoftwareFoundation.Python.3.11_3.11.2032.0_x64__qbz5n2kfra8p0\\Lib\\importlib\\resources\\abc.py',
   'PYMODULE'),
  ('importlib.resources.readers',
   'C:\\Program '
   'Files\\WindowsApps\\PythonSoftwareFoundation.Python.3.11_3.11.2032.0_x64__qbz5n2kfra8p0\\Lib\\importlib\\resources\\readers.py',
   'PYMODULE'),
  ('importlib.util',
   'C:\\Program '
   'Files\\WindowsApps\\PythonSoftwareFoundation.Python.3.11_3.11.2032.0_x64__qbz5n2kfra8p0\\Lib\\importlib\\util.py',
   'PYMODULE'),
  ('inspect',
   'C:\\Program '
   'Files\\WindowsApps\\PythonSoftwareFoundation.Python.3.11_3.11.2032.0_x64__qbz5n2kfra8p0\\Lib\\inspect.py',
   'PYMODULE'),
  ('ipaddress',
   'C:\\Program '
   'Files\\WindowsApps\\PythonSoftwareFoundation.Python.3.11_3.11.2032.0_x64__qbz5n2kfra8p0\\Lib\\ipaddress.py',
   'PYMODULE'),
  ('json',
   'C:\\Program '
   'Files\\WindowsApps\\PythonSoftwareFoundation.Python.3.11_3.11.2032.0_x64__qbz5n2kfra8p0\\Lib\\json\\__init__.py',
   'PYMODULE'),
  ('json.decoder',
   'C:\\Program '
   'Files\\WindowsApps\\PythonSoftwareFoundation.Python.3.11_3.11.2032.0_x64__qbz5n2kfra8p0\\Lib\\json\\decoder.py',
   'PYMODULE'),
  ('json.encoder',
   'C:\\Program '
   'Files\\WindowsApps\\PythonSoftwareFoundation.Python.3.11_3.11.2032.0_x64__qbz5n2kfra8p0\\Lib\\json\\encoder.py',
   'PYMODULE'),
  ('json.scanner',
   'C:\\Program '
   'Files\\WindowsApps\\PythonSoftwareFoundation.Python.3.11_3.11.2032.0_x64__qbz5n2kfra8p0\\Lib\\json\\scanner.py',
   'PYMODULE'),
  ('logging',
   'C:\\Program '
   'Files\\WindowsApps\\PythonSoftwareFoundation.Python.3.11_3.11.2032.0_x64__qbz5n2kfra8p0\\Lib\\logging\\__init__.py',
   'PYMODULE'),
  ('lzma',
   'C:\\Program '
   'Files\\WindowsApps\\PythonSoftwareFoundation.Python.3.11_3.11.2032.0_x64__qbz5n2kfra8p0\\Lib\\lzma.py',
   'PYMODULE'),
  ('mimetypes',
   'C:\\Program '
   'Files\\WindowsApps\\PythonSoftwareFoundation.Python.3.11_3.11.2032.0_x64__qbz5n2kfra8p0\\Lib\\mimetypes.py',
   'PYMODULE'),
  ('netrc',
   'C:\\Program '
   'Files\\WindowsApps\\PythonSoftwareFoundation.Python.3.11_3.11.2032.0_x64__qbz5n2kfra8p0\\Lib\\netrc.py',
   'PYMODULE'),
  ('nturl2path',
   'C:\\Program '
   'Files\\WindowsApps\\PythonSoftwareFoundation.Python.3.11_3.11.2032.0_x64__qbz5n2kfra8p0\\Lib\\nturl2path.py',
   'PYMODULE'),
  ('numbers',
   'C:\\Program '
   'Files\\WindowsApps\\PythonSoftwareFoundation.Python.3.11_3.11.2032.0_x64__qbz5n2kfra8p0\\Lib\\numbers.py',
   'PYMODULE'),
  ('opcode',
   'C:\\Program '
   'Files\\WindowsApps\\PythonSoftwareFoundation.Python.3.11_3.11.2032.0_x64__qbz5n2kfra8p0\\Lib\\opcode.py',
   'PYMODULE'),
  ('pathlib',
   'C:\\Program '
   'Files\\WindowsApps\\PythonSoftwareFoundation.Python.3.11_3.11.2032.0_x64__qbz5n2kfra8p0\\Lib\\pathlib.py',
   'PYMODULE'),
  ('pickle',
   'C:\\Program '
   'Files\\WindowsApps\\PythonSoftwareFoundation.Python.3.11_3.11.2032.0_x64__qbz5n2kfra8p0\\Lib\\pickle.py',
   'PYMODULE'),
  ('pkgutil',
   'C:\\Program '
   'Files\\WindowsApps\\PythonSoftwareFoundation.Python.3.11_3.11.2032.0_x64__qbz5n2kfra8p0\\Lib\\pkgutil.py',
   'PYMODULE'),
  ('platform',
   'C:\\Program '
   'Files\\WindowsApps\\PythonSoftwareFoundation.Python.3.11_3.11.2032.0_x64__qbz5n2kfra8p0\\Lib\\platform.py',
   'PYMODULE'),
  ('pprint',
   'C:\\Program '
   'Files\\WindowsApps\\PythonSoftwareFoundation.Python.3.11_3.11.2032.0_x64__qbz5n2kfra8p0\\Lib\\pprint.py',
   'PYMODULE'),
  ('py_compile',
   'C:\\Program '
   'Files\\WindowsApps\\PythonSoftwareFoundation.Python.3.11_3.11.2032.0_x64__qbz5n2kfra8p0\\Lib\\py_compile.py',
   'PYMODULE'),
  ('queue',
   'C:\\Program '
   'Files\\WindowsApps\\PythonSoftwareFoundation.Python.3.11_3.11.2032.0_x64__qbz5n2kfra8p0\\Lib\\queue.py',
   'PYMODULE'),
  ('quopri',
   'C:\\Program '
   'Files\\WindowsApps\\PythonSoftwareFoundation.Python.3.11_3.11.2032.0_x64__qbz5n2kfra8p0\\Lib\\quopri.py',
   'PYMODULE'),
  ('random',
   'C:\\Program '
   'Files\\WindowsApps\\PythonSoftwareFoundation.Python.3.11_3.11.2032.0_x64__qbz5n2kfra8p0\\Lib\\random.py',
   'PYMODULE'),
  ('selectors',
   'C:\\Program '
   'Files\\WindowsApps\\PythonSoftwareFoundation.Python.3.11_3.11.2032.0_x64__qbz5n2kfra8p0\\Lib\\selectors.py',
   'PYMODULE'),
  ('selenium',
   'C:\\Users\\wsooi11962\\AppData\\Local\\Packages\\PythonSoftwareFoundation.Python.3.11_qbz5n2kfra8p0\\LocalCache\\local-packages\\Python311\\site-packages\\selenium\\__init__.py',
   'PYMODULE'),
  ('selenium.common',
   'C:\\Users\\wsooi11962\\AppData\\Local\\Packages\\PythonSoftwareFoundation.Python.3.11_qbz5n2kfra8p0\\LocalCache\\local-packages\\Python311\\site-packages\\selenium\\common\\__init__.py',
   'PYMODULE'),
  ('selenium.common.exceptions',
   'C:\\Users\\wsooi11962\\AppData\\Local\\Packages\\PythonSoftwareFoundation.Python.3.11_qbz5n2kfra8p0\\LocalCache\\local-packages\\Python311\\site-packages\\selenium\\common\\exceptions.py',
   'PYMODULE'),
  ('selenium.types',
   'C:\\Users\\wsooi11962\\AppData\\Local\\Packages\\PythonSoftwareFoundation.Python.3.11_qbz5n2kfra8p0\\LocalCache\\local-packages\\Python311\\site-packages\\selenium\\types.py',
   'PYMODULE'),
  ('selenium.webdriver',
   'C:\\Users\\wsooi11962\\AppData\\Local\\Packages\\PythonSoftwareFoundation.Python.3.11_qbz5n2kfra8p0\\LocalCache\\local-packages\\Python311\\site-packages\\selenium\\webdriver\\__init__.py',
   'PYMODULE'),
  ('selenium.webdriver.chrome',
   'C:\\Users\\wsooi11962\\AppData\\Local\\Packages\\PythonSoftwareFoundation.Python.3.11_qbz5n2kfra8p0\\LocalCache\\local-packages\\Python311\\site-packages\\selenium\\webdriver\\chrome\\__init__.py',
   'PYMODULE'),
  ('selenium.webdriver.chrome.options',
   'C:\\Users\\wsooi11962\\AppData\\Local\\Packages\\PythonSoftwareFoundation.Python.3.11_qbz5n2kfra8p0\\LocalCache\\local-packages\\Python311\\site-packages\\selenium\\webdriver\\chrome\\options.py',
   'PYMODULE'),
  ('selenium.webdriver.chrome.remote_connection',
   'C:\\Users\\wsooi11962\\AppData\\Local\\Packages\\PythonSoftwareFoundation.Python.3.11_qbz5n2kfra8p0\\LocalCache\\local-packages\\Python311\\site-packages\\selenium\\webdriver\\chrome\\remote_connection.py',
   'PYMODULE'),
  ('selenium.webdriver.chrome.service',
   'C:\\Users\\wsooi11962\\AppData\\Local\\Packages\\PythonSoftwareFoundation.Python.3.11_qbz5n2kfra8p0\\LocalCache\\local-packages\\Python311\\site-packages\\selenium\\webdriver\\chrome\\service.py',
   'PYMODULE'),
  ('selenium.webdriver.chrome.webdriver',
   'C:\\Users\\wsooi11962\\AppData\\Local\\Packages\\PythonSoftwareFoundation.Python.3.11_qbz5n2kfra8p0\\LocalCache\\local-packages\\Python311\\site-packages\\selenium\\webdriver\\chrome\\webdriver.py',
   'PYMODULE'),
  ('selenium.webdriver.chromium',
   'C:\\Users\\wsooi11962\\AppData\\Local\\Packages\\PythonSoftwareFoundation.Python.3.11_qbz5n2kfra8p0\\LocalCache\\local-packages\\Python311\\site-packages\\selenium\\webdriver\\chromium\\__init__.py',
   'PYMODULE'),
  ('selenium.webdriver.chromium.options',
   'C:\\Users\\wsooi11962\\AppData\\Local\\Packages\\PythonSoftwareFoundation.Python.3.11_qbz5n2kfra8p0\\LocalCache\\local-packages\\Python311\\site-packages\\selenium\\webdriver\\chromium\\options.py',
   'PYMODULE'),
  ('selenium.webdriver.chromium.remote_connection',
   'C:\\Users\\wsooi11962\\AppData\\Local\\Packages\\PythonSoftwareFoundation.Python.3.11_qbz5n2kfra8p0\\LocalCache\\local-packages\\Python311\\site-packages\\selenium\\webdriver\\chromium\\remote_connection.py',
   'PYMODULE'),
  ('selenium.webdriver.chromium.service',
   'C:\\Users\\wsooi11962\\AppData\\Local\\Packages\\PythonSoftwareFoundation.Python.3.11_qbz5n2kfra8p0\\LocalCache\\local-packages\\Python311\\site-packages\\selenium\\webdriver\\chromium\\service.py',
   'PYMODULE'),
  ('selenium.webdriver.chromium.webdriver',
   'C:\\Users\\wsooi11962\\AppData\\Local\\Packages\\PythonSoftwareFoundation.Python.3.11_qbz5n2kfra8p0\\LocalCache\\local-packages\\Python311\\site-packages\\selenium\\webdriver\\chromium\\webdriver.py',
   'PYMODULE'),
  ('selenium.webdriver.common',
   'C:\\Users\\wsooi11962\\AppData\\Local\\Packages\\PythonSoftwareFoundation.Python.3.11_qbz5n2kfra8p0\\LocalCache\\local-packages\\Python311\\site-packages\\selenium\\webdriver\\common\\__init__.py',
   'PYMODULE'),
  ('selenium.webdriver.common.action_chains',
   'C:\\Users\\wsooi11962\\AppData\\Local\\Packages\\PythonSoftwareFoundation.Python.3.11_qbz5n2kfra8p0\\LocalCache\\local-packages\\Python311\\site-packages\\selenium\\webdriver\\common\\action_chains.py',
   'PYMODULE'),
  ('selenium.webdriver.common.actions',
   'C:\\Users\\wsooi11962\\AppData\\Local\\Packages\\PythonSoftwareFoundation.Python.3.11_qbz5n2kfra8p0\\LocalCache\\local-packages\\Python311\\site-packages\\selenium\\webdriver\\common\\actions\\__init__.py',
   'PYMODULE'),
  ('selenium.webdriver.common.actions.action_builder',
   'C:\\Users\\wsooi11962\\AppData\\Local\\Packages\\PythonSoftwareFoundation.Python.3.11_qbz5n2kfra8p0\\LocalCache\\local-packages\\Python311\\site-packages\\selenium\\webdriver\\common\\actions\\action_builder.py',
   'PYMODULE'),
  ('selenium.webdriver.common.actions.input_device',
   'C:\\Users\\wsooi11962\\AppData\\Local\\Packages\\PythonSoftwareFoundation.Python.3.11_qbz5n2kfra8p0\\LocalCache\\local-packages\\Python311\\site-packages\\selenium\\webdriver\\common\\actions\\input_device.py',
   'PYMODULE'),
  ('selenium.webdriver.common.actions.interaction',
   'C:\\Users\\wsooi11962\\AppData\\Local\\Packages\\PythonSoftwareFoundation.Python.3.11_qbz5n2kfra8p0\\LocalCache\\local-packages\\Python311\\site-packages\\selenium\\webdriver\\common\\actions\\interaction.py',
   'PYMODULE'),
  ('selenium.webdriver.common.actions.key_actions',
   'C:\\Users\\wsooi11962\\AppData\\Local\\Packages\\PythonSoftwareFoundation.Python.3.11_qbz5n2kfra8p0\\LocalCache\\local-packages\\Python311\\site-packages\\selenium\\webdriver\\common\\actions\\key_actions.py',
   'PYMODULE'),
  ('selenium.webdriver.common.actions.key_input',
   'C:\\Users\\wsooi11962\\AppData\\Local\\Packages\\PythonSoftwareFoundation.Python.3.11_qbz5n2kfra8p0\\LocalCache\\local-packages\\Python311\\site-packages\\selenium\\webdriver\\common\\actions\\key_input.py',
   'PYMODULE'),
  ('selenium.webdriver.common.actions.mouse_button',
   'C:\\Users\\wsooi11962\\AppData\\Local\\Packages\\PythonSoftwareFoundation.Python.3.11_qbz5n2kfra8p0\\LocalCache\\local-packages\\Python311\\site-packages\\selenium\\webdriver\\common\\actions\\mouse_button.py',
   'PYMODULE'),
  ('selenium.webdriver.common.actions.pointer_actions',
   'C:\\Users\\wsooi11962\\AppData\\Local\\Packages\\PythonSoftwareFoundation.Python.3.11_qbz5n2kfra8p0\\LocalCache\\local-packages\\Python311\\site-packages\\selenium\\webdriver\\common\\actions\\pointer_actions.py',
   'PYMODULE'),
  ('selenium.webdriver.common.actions.pointer_input',
   'C:\\Users\\wsooi11962\\AppData\\Local\\Packages\\PythonSoftwareFoundation.Python.3.11_qbz5n2kfra8p0\\LocalCache\\local-packages\\Python311\\site-packages\\selenium\\webdriver\\common\\actions\\pointer_input.py',
   'PYMODULE'),
  ('selenium.webdriver.common.actions.wheel_actions',
   'C:\\Users\\wsooi11962\\AppData\\Local\\Packages\\PythonSoftwareFoundation.Python.3.11_qbz5n2kfra8p0\\LocalCache\\local-packages\\Python311\\site-packages\\selenium\\webdriver\\common\\actions\\wheel_actions.py',
   'PYMODULE'),
  ('selenium.webdriver.common.actions.wheel_input',
   'C:\\Users\\wsooi11962\\AppData\\Local\\Packages\\PythonSoftwareFoundation.Python.3.11_qbz5n2kfra8p0\\LocalCache\\local-packages\\Python311\\site-packages\\selenium\\webdriver\\common\\actions\\wheel_input.py',
   'PYMODULE'),
  ('selenium.webdriver.common.alert',
   'C:\\Users\\wsooi11962\\AppData\\Local\\Packages\\PythonSoftwareFoundation.Python.3.11_qbz5n2kfra8p0\\LocalCache\\local-packages\\Python311\\site-packages\\selenium\\webdriver\\common\\alert.py',
   'PYMODULE'),
  ('selenium.webdriver.common.by',
   'C:\\Users\\wsooi11962\\AppData\\Local\\Packages\\PythonSoftwareFoundation.Python.3.11_qbz5n2kfra8p0\\LocalCache\\local-packages\\Python311\\site-packages\\selenium\\webdriver\\common\\by.py',
   'PYMODULE'),
  ('selenium.webdriver.common.desired_capabilities',
   'C:\\Users\\wsooi11962\\AppData\\Local\\Packages\\PythonSoftwareFoundation.Python.3.11_qbz5n2kfra8p0\\LocalCache\\local-packages\\Python311\\site-packages\\selenium\\webdriver\\common\\desired_capabilities.py',
   'PYMODULE'),
  ('selenium.webdriver.common.driver_finder',
   'C:\\Users\\wsooi11962\\AppData\\Local\\Packages\\PythonSoftwareFoundation.Python.3.11_qbz5n2kfra8p0\\LocalCache\\local-packages\\Python311\\site-packages\\selenium\\webdriver\\common\\driver_finder.py',
   'PYMODULE'),
  ('selenium.webdriver.common.html5',
   'C:\\Users\\wsooi11962\\AppData\\Local\\Packages\\PythonSoftwareFoundation.Python.3.11_qbz5n2kfra8p0\\LocalCache\\local-packages\\Python311\\site-packages\\selenium\\webdriver\\common\\html5\\__init__.py',
   'PYMODULE'),
  ('selenium.webdriver.common.html5.application_cache',
   'C:\\Users\\wsooi11962\\AppData\\Local\\Packages\\PythonSoftwareFoundation.Python.3.11_qbz5n2kfra8p0\\LocalCache\\local-packages\\Python311\\site-packages\\selenium\\webdriver\\common\\html5\\application_cache.py',
   'PYMODULE'),
  ('selenium.webdriver.common.keys',
   'C:\\Users\\wsooi11962\\AppData\\Local\\Packages\\PythonSoftwareFoundation.Python.3.11_qbz5n2kfra8p0\\LocalCache\\local-packages\\Python311\\site-packages\\selenium\\webdriver\\common\\keys.py',
   'PYMODULE'),
  ('selenium.webdriver.common.options',
   'C:\\Users\\wsooi11962\\AppData\\Local\\Packages\\PythonSoftwareFoundation.Python.3.11_qbz5n2kfra8p0\\LocalCache\\local-packages\\Python311\\site-packages\\selenium\\webdriver\\common\\options.py',
   'PYMODULE'),
  ('selenium.webdriver.common.print_page_options',
   'C:\\Users\\wsooi11962\\AppData\\Local\\Packages\\PythonSoftwareFoundation.Python.3.11_qbz5n2kfra8p0\\LocalCache\\local-packages\\Python311\\site-packages\\selenium\\webdriver\\common\\print_page_options.py',
   'PYMODULE'),
  ('selenium.webdriver.common.proxy',
   'C:\\Users\\wsooi11962\\AppData\\Local\\Packages\\PythonSoftwareFoundation.Python.3.11_qbz5n2kfra8p0\\LocalCache\\local-packages\\Python311\\site-packages\\selenium\\webdriver\\common\\proxy.py',
   'PYMODULE'),
  ('selenium.webdriver.common.selenium_manager',
   'C:\\Users\\wsooi11962\\AppData\\Local\\Packages\\PythonSoftwareFoundation.Python.3.11_qbz5n2kfra8p0\\LocalCache\\local-packages\\Python311\\site-packages\\selenium\\webdriver\\common\\selenium_manager.py',
   'PYMODULE'),
  ('selenium.webdriver.common.service',
   'C:\\Users\\wsooi11962\\AppData\\Local\\Packages\\PythonSoftwareFoundation.Python.3.11_qbz5n2kfra8p0\\LocalCache\\local-packages\\Python311\\site-packages\\selenium\\webdriver\\common\\service.py',
   'PYMODULE'),
  ('selenium.webdriver.common.timeouts',
   'C:\\Users\\wsooi11962\\AppData\\Local\\Packages\\PythonSoftwareFoundation.Python.3.11_qbz5n2kfra8p0\\LocalCache\\local-packages\\Python311\\site-packages\\selenium\\webdriver\\common\\timeouts.py',
   'PYMODULE'),
  ('selenium.webdriver.common.utils',
   'C:\\Users\\wsooi11962\\AppData\\Local\\Packages\\PythonSoftwareFoundation.Python.3.11_qbz5n2kfra8p0\\LocalCache\\local-packages\\Python311\\site-packages\\selenium\\webdriver\\common\\utils.py',
   'PYMODULE'),
  ('selenium.webdriver.common.virtual_authenticator',
   'C:\\Users\\wsooi11962\\AppData\\Local\\Packages\\PythonSoftwareFoundation.Python.3.11_qbz5n2kfra8p0\\LocalCache\\local-packages\\Python311\\site-packages\\selenium\\webdriver\\common\\virtual_authenticator.py',
   'PYMODULE'),
  ('selenium.webdriver.edge',
   'C:\\Users\\wsooi11962\\AppData\\Local\\Packages\\PythonSoftwareFoundation.Python.3.11_qbz5n2kfra8p0\\LocalCache\\local-packages\\Python311\\site-packages\\selenium\\webdriver\\edge\\__init__.py',
   'PYMODULE'),
  ('selenium.webdriver.edge.options',
   'C:\\Users\\wsooi11962\\AppData\\Local\\Packages\\PythonSoftwareFoundation.Python.3.11_qbz5n2kfra8p0\\LocalCache\\local-packages\\Python311\\site-packages\\selenium\\webdriver\\edge\\options.py',
   'PYMODULE'),
  ('selenium.webdriver.edge.remote_connection',
   'C:\\Users\\wsooi11962\\AppData\\Local\\Packages\\PythonSoftwareFoundation.Python.3.11_qbz5n2kfra8p0\\LocalCache\\local-packages\\Python311\\site-packages\\selenium\\webdriver\\edge\\remote_connection.py',
   'PYMODULE'),
  ('selenium.webdriver.edge.service',
   'C:\\Users\\wsooi11962\\AppData\\Local\\Packages\\PythonSoftwareFoundation.Python.3.11_qbz5n2kfra8p0\\LocalCache\\local-packages\\Python311\\site-packages\\selenium\\webdriver\\edge\\service.py',
   'PYMODULE'),
  ('selenium.webdriver.edge.webdriver',
   'C:\\Users\\wsooi11962\\AppData\\Local\\Packages\\PythonSoftwareFoundation.Python.3.11_qbz5n2kfra8p0\\LocalCache\\local-packages\\Python311\\site-packages\\selenium\\webdriver\\edge\\webdriver.py',
   'PYMODULE'),
  ('selenium.webdriver.firefox',
   'C:\\Users\\wsooi11962\\AppData\\Local\\Packages\\PythonSoftwareFoundation.Python.3.11_qbz5n2kfra8p0\\LocalCache\\local-packages\\Python311\\site-packages\\selenium\\webdriver\\firefox\\__init__.py',
   'PYMODULE'),
  ('selenium.webdriver.firefox.firefox_binary',
   'C:\\Users\\wsooi11962\\AppData\\Local\\Packages\\PythonSoftwareFoundation.Python.3.11_qbz5n2kfra8p0\\LocalCache\\local-packages\\Python311\\site-packages\\selenium\\webdriver\\firefox\\firefox_binary.py',
   'PYMODULE'),
  ('selenium.webdriver.firefox.firefox_profile',
   'C:\\Users\\wsooi11962\\AppData\\Local\\Packages\\PythonSoftwareFoundation.Python.3.11_qbz5n2kfra8p0\\LocalCache\\local-packages\\Python311\\site-packages\\selenium\\webdriver\\firefox\\firefox_profile.py',
   'PYMODULE'),
  ('selenium.webdriver.firefox.options',
   'C:\\Users\\wsooi11962\\AppData\\Local\\Packages\\PythonSoftwareFoundation.Python.3.11_qbz5n2kfra8p0\\LocalCache\\local-packages\\Python311\\site-packages\\selenium\\webdriver\\firefox\\options.py',
   'PYMODULE'),
  ('selenium.webdriver.firefox.remote_connection',
   'C:\\Users\\wsooi11962\\AppData\\Local\\Packages\\PythonSoftwareFoundation.Python.3.11_qbz5n2kfra8p0\\LocalCache\\local-packages\\Python311\\site-packages\\selenium\\webdriver\\firefox\\remote_connection.py',
   'PYMODULE'),
  ('selenium.webdriver.firefox.service',
   'C:\\Users\\wsooi11962\\AppData\\Local\\Packages\\PythonSoftwareFoundation.Python.3.11_qbz5n2kfra8p0\\LocalCache\\local-packages\\Python311\\site-packages\\selenium\\webdriver\\firefox\\service.py',
   'PYMODULE'),
  ('selenium.webdriver.firefox.webdriver',
   'C:\\Users\\wsooi11962\\AppData\\Local\\Packages\\PythonSoftwareFoundation.Python.3.11_qbz5n2kfra8p0\\LocalCache\\local-packages\\Python311\\site-packages\\selenium\\webdriver\\firefox\\webdriver.py',
   'PYMODULE'),
  ('selenium.webdriver.ie',
   'C:\\Users\\wsooi11962\\AppData\\Local\\Packages\\PythonSoftwareFoundation.Python.3.11_qbz5n2kfra8p0\\LocalCache\\local-packages\\Python311\\site-packages\\selenium\\webdriver\\ie\\__init__.py',
   'PYMODULE'),
  ('selenium.webdriver.ie.options',
   'C:\\Users\\wsooi11962\\AppData\\Local\\Packages\\PythonSoftwareFoundation.Python.3.11_qbz5n2kfra8p0\\LocalCache\\local-packages\\Python311\\site-packages\\selenium\\webdriver\\ie\\options.py',
   'PYMODULE'),
  ('selenium.webdriver.ie.service',
   'C:\\Users\\wsooi11962\\AppData\\Local\\Packages\\PythonSoftwareFoundation.Python.3.11_qbz5n2kfra8p0\\LocalCache\\local-packages\\Python311\\site-packages\\selenium\\webdriver\\ie\\service.py',
   'PYMODULE'),
  ('selenium.webdriver.ie.webdriver',
   'C:\\Users\\wsooi11962\\AppData\\Local\\Packages\\PythonSoftwareFoundation.Python.3.11_qbz5n2kfra8p0\\LocalCache\\local-packages\\Python311\\site-packages\\selenium\\webdriver\\ie\\webdriver.py',
   'PYMODULE'),
  ('selenium.webdriver.remote',
   'C:\\Users\\wsooi11962\\AppData\\Local\\Packages\\PythonSoftwareFoundation.Python.3.11_qbz5n2kfra8p0\\LocalCache\\local-packages\\Python311\\site-packages\\selenium\\webdriver\\remote\\__init__.py',
   'PYMODULE'),
  ('selenium.webdriver.remote.bidi_connection',
   'C:\\Users\\wsooi11962\\AppData\\Local\\Packages\\PythonSoftwareFoundation.Python.3.11_qbz5n2kfra8p0\\LocalCache\\local-packages\\Python311\\site-packages\\selenium\\webdriver\\remote\\bidi_connection.py',
   'PYMODULE'),
  ('selenium.webdriver.remote.command',
   'C:\\Users\\wsooi11962\\AppData\\Local\\Packages\\PythonSoftwareFoundation.Python.3.11_qbz5n2kfra8p0\\LocalCache\\local-packages\\Python311\\site-packages\\selenium\\webdriver\\remote\\command.py',
   'PYMODULE'),
  ('selenium.webdriver.remote.errorhandler',
   'C:\\Users\\wsooi11962\\AppData\\Local\\Packages\\PythonSoftwareFoundation.Python.3.11_qbz5n2kfra8p0\\LocalCache\\local-packages\\Python311\\site-packages\\selenium\\webdriver\\remote\\errorhandler.py',
   'PYMODULE'),
  ('selenium.webdriver.remote.file_detector',
   'C:\\Users\\wsooi11962\\AppData\\Local\\Packages\\PythonSoftwareFoundation.Python.3.11_qbz5n2kfra8p0\\LocalCache\\local-packages\\Python311\\site-packages\\selenium\\webdriver\\remote\\file_detector.py',
   'PYMODULE'),
  ('selenium.webdriver.remote.mobile',
   'C:\\Users\\wsooi11962\\AppData\\Local\\Packages\\PythonSoftwareFoundation.Python.3.11_qbz5n2kfra8p0\\LocalCache\\local-packages\\Python311\\site-packages\\selenium\\webdriver\\remote\\mobile.py',
   'PYMODULE'),
  ('selenium.webdriver.remote.remote_connection',
   'C:\\Users\\wsooi11962\\AppData\\Local\\Packages\\PythonSoftwareFoundation.Python.3.11_qbz5n2kfra8p0\\LocalCache\\local-packages\\Python311\\site-packages\\selenium\\webdriver\\remote\\remote_connection.py',
   'PYMODULE'),
  ('selenium.webdriver.remote.script_key',
   'C:\\Users\\wsooi11962\\AppData\\Local\\Packages\\PythonSoftwareFoundation.Python.3.11_qbz5n2kfra8p0\\LocalCache\\local-packages\\Python311\\site-packages\\selenium\\webdriver\\remote\\script_key.py',
   'PYMODULE'),
  ('selenium.webdriver.remote.shadowroot',
   'C:\\Users\\wsooi11962\\AppData\\Local\\Packages\\PythonSoftwareFoundation.Python.3.11_qbz5n2kfra8p0\\LocalCache\\local-packages\\Python311\\site-packages\\selenium\\webdriver\\remote\\shadowroot.py',
   'PYMODULE'),
  ('selenium.webdriver.remote.switch_to',
   'C:\\Users\\wsooi11962\\AppData\\Local\\Packages\\PythonSoftwareFoundation.Python.3.11_qbz5n2kfra8p0\\LocalCache\\local-packages\\Python311\\site-packages\\selenium\\webdriver\\remote\\switch_to.py',
   'PYMODULE'),
  ('selenium.webdriver.remote.utils',
   'C:\\Users\\wsooi11962\\AppData\\Local\\Packages\\PythonSoftwareFoundation.Python.3.11_qbz5n2kfra8p0\\LocalCache\\local-packages\\Python311\\site-packages\\selenium\\webdriver\\remote\\utils.py',
   'PYMODULE'),
  ('selenium.webdriver.remote.webdriver',
   'C:\\Users\\wsooi11962\\AppData\\Local\\Packages\\PythonSoftwareFoundation.Python.3.11_qbz5n2kfra8p0\\LocalCache\\local-packages\\Python311\\site-packages\\selenium\\webdriver\\remote\\webdriver.py',
   'PYMODULE'),
  ('selenium.webdriver.remote.webelement',
   'C:\\Users\\wsooi11962\\AppData\\Local\\Packages\\PythonSoftwareFoundation.Python.3.11_qbz5n2kfra8p0\\LocalCache\\local-packages\\Python311\\site-packages\\selenium\\webdriver\\remote\\webelement.py',
   'PYMODULE'),
  ('selenium.webdriver.safari',
   'C:\\Users\\wsooi11962\\AppData\\Local\\Packages\\PythonSoftwareFoundation.Python.3.11_qbz5n2kfra8p0\\LocalCache\\local-packages\\Python311\\site-packages\\selenium\\webdriver\\safari\\__init__.py',
   'PYMODULE'),
  ('selenium.webdriver.safari.options',
   'C:\\Users\\wsooi11962\\AppData\\Local\\Packages\\PythonSoftwareFoundation.Python.3.11_qbz5n2kfra8p0\\LocalCache\\local-packages\\Python311\\site-packages\\selenium\\webdriver\\safari\\options.py',
   'PYMODULE'),
  ('selenium.webdriver.safari.remote_connection',
   'C:\\Users\\wsooi11962\\AppData\\Local\\Packages\\PythonSoftwareFoundation.Python.3.11_qbz5n2kfra8p0\\LocalCache\\local-packages\\Python311\\site-packages\\selenium\\webdriver\\safari\\remote_connection.py',
   'PYMODULE'),
  ('selenium.webdriver.safari.service',
   'C:\\Users\\wsooi11962\\AppData\\Local\\Packages\\PythonSoftwareFoundation.Python.3.11_qbz5n2kfra8p0\\LocalCache\\local-packages\\Python311\\site-packages\\selenium\\webdriver\\safari\\service.py',
   'PYMODULE'),
  ('selenium.webdriver.safari.webdriver',
   'C:\\Users\\wsooi11962\\AppData\\Local\\Packages\\PythonSoftwareFoundation.Python.3.11_qbz5n2kfra8p0\\LocalCache\\local-packages\\Python311\\site-packages\\selenium\\webdriver\\safari\\webdriver.py',
   'PYMODULE'),
  ('selenium.webdriver.support',
   'C:\\Users\\wsooi11962\\AppData\\Local\\Packages\\PythonSoftwareFoundation.Python.3.11_qbz5n2kfra8p0\\LocalCache\\local-packages\\Python311\\site-packages\\selenium\\webdriver\\support\\__init__.py',
   'PYMODULE'),
  ('selenium.webdriver.support.relative_locator',
   'C:\\Users\\wsooi11962\\AppData\\Local\\Packages\\PythonSoftwareFoundation.Python.3.11_qbz5n2kfra8p0\\LocalCache\\local-packages\\Python311\\site-packages\\selenium\\webdriver\\support\\relative_locator.py',
   'PYMODULE'),
  ('selenium.webdriver.webkitgtk',
   'C:\\Users\\wsooi11962\\AppData\\Local\\Packages\\PythonSoftwareFoundation.Python.3.11_qbz5n2kfra8p0\\LocalCache\\local-packages\\Python311\\site-packages\\selenium\\webdriver\\webkitgtk\\__init__.py',
   'PYMODULE'),
  ('selenium.webdriver.webkitgtk.options',
   'C:\\Users\\wsooi11962\\AppData\\Local\\Packages\\PythonSoftwareFoundation.Python.3.11_qbz5n2kfra8p0\\LocalCache\\local-packages\\Python311\\site-packages\\selenium\\webdriver\\webkitgtk\\options.py',
   'PYMODULE'),
  ('selenium.webdriver.webkitgtk.service',
   'C:\\Users\\wsooi11962\\AppData\\Local\\Packages\\PythonSoftwareFoundation.Python.3.11_qbz5n2kfra8p0\\LocalCache\\local-packages\\Python311\\site-packages\\selenium\\webdriver\\webkitgtk\\service.py',
   'PYMODULE'),
  ('selenium.webdriver.webkitgtk.webdriver',
   'C:\\Users\\wsooi11962\\AppData\\Local\\Packages\\PythonSoftwareFoundation.Python.3.11_qbz5n2kfra8p0\\LocalCache\\local-packages\\Python311\\site-packages\\selenium\\webdriver\\webkitgtk\\webdriver.py',
   'PYMODULE'),
  ('selenium.webdriver.wpewebkit',
   'C:\\Users\\wsooi11962\\AppData\\Local\\Packages\\PythonSoftwareFoundation.Python.3.11_qbz5n2kfra8p0\\LocalCache\\local-packages\\Python311\\site-packages\\selenium\\webdriver\\wpewebkit\\__init__.py',
   'PYMODULE'),
  ('selenium.webdriver.wpewebkit.options',
   'C:\\Users\\wsooi11962\\AppData\\Local\\Packages\\PythonSoftwareFoundation.Python.3.11_qbz5n2kfra8p0\\LocalCache\\local-packages\\Python311\\site-packages\\selenium\\webdriver\\wpewebkit\\options.py',
   'PYMODULE'),
  ('selenium.webdriver.wpewebkit.service',
   'C:\\Users\\wsooi11962\\AppData\\Local\\Packages\\PythonSoftwareFoundation.Python.3.11_qbz5n2kfra8p0\\LocalCache\\local-packages\\Python311\\site-packages\\selenium\\webdriver\\wpewebkit\\service.py',
   'PYMODULE'),
  ('selenium.webdriver.wpewebkit.webdriver',
   'C:\\Users\\wsooi11962\\AppData\\Local\\Packages\\PythonSoftwareFoundation.Python.3.11_qbz5n2kfra8p0\\LocalCache\\local-packages\\Python311\\site-packages\\selenium\\webdriver\\wpewebkit\\webdriver.py',
   'PYMODULE'),
  ('shlex',
   'C:\\Program '
   'Files\\WindowsApps\\PythonSoftwareFoundation.Python.3.11_3.11.2032.0_x64__qbz5n2kfra8p0\\Lib\\shlex.py',
   'PYMODULE'),
  ('shutil',
   'C:\\Program '
   'Files\\WindowsApps\\PythonSoftwareFoundation.Python.3.11_3.11.2032.0_x64__qbz5n2kfra8p0\\Lib\\shutil.py',
   'PYMODULE'),
  ('signal',
   'C:\\Program '
   'Files\\WindowsApps\\PythonSoftwareFoundation.Python.3.11_3.11.2032.0_x64__qbz5n2kfra8p0\\Lib\\signal.py',
   'PYMODULE'),
  ('socket',
   'C:\\Program '
   'Files\\WindowsApps\\PythonSoftwareFoundation.Python.3.11_3.11.2032.0_x64__qbz5n2kfra8p0\\Lib\\socket.py',
   'PYMODULE'),
  ('socks',
   'C:\\Users\\wsooi11962\\AppData\\Local\\Packages\\PythonSoftwareFoundation.Python.3.11_qbz5n2kfra8p0\\LocalCache\\local-packages\\Python311\\site-packages\\socks.py',
   'PYMODULE'),
  ('ssl',
   'C:\\Program '
   'Files\\WindowsApps\\PythonSoftwareFoundation.Python.3.11_3.11.2032.0_x64__qbz5n2kfra8p0\\Lib\\ssl.py',
   'PYMODULE'),
  ('statistics',
   'C:\\Program '
   'Files\\WindowsApps\\PythonSoftwareFoundation.Python.3.11_3.11.2032.0_x64__qbz5n2kfra8p0\\Lib\\statistics.py',
   'PYMODULE'),
  ('string',
   'C:\\Program '
   'Files\\WindowsApps\\PythonSoftwareFoundation.Python.3.11_3.11.2032.0_x64__qbz5n2kfra8p0\\Lib\\string.py',
   'PYMODULE'),
  ('stringprep',
   'C:\\Program '
   'Files\\WindowsApps\\PythonSoftwareFoundation.Python.3.11_3.11.2032.0_x64__qbz5n2kfra8p0\\Lib\\stringprep.py',
   'PYMODULE'),
  ('subprocess',
   'C:\\Program '
   'Files\\WindowsApps\\PythonSoftwareFoundation.Python.3.11_3.11.2032.0_x64__qbz5n2kfra8p0\\Lib\\subprocess.py',
   'PYMODULE'),
  ('tarfile',
   'C:\\Program '
   'Files\\WindowsApps\\PythonSoftwareFoundation.Python.3.11_3.11.2032.0_x64__qbz5n2kfra8p0\\Lib\\tarfile.py',
   'PYMODULE'),
  ('tempfile',
   'C:\\Program '
   'Files\\WindowsApps\\PythonSoftwareFoundation.Python.3.11_3.11.2032.0_x64__qbz5n2kfra8p0\\Lib\\tempfile.py',
   'PYMODULE'),
  ('textwrap',
   'C:\\Program '
   'Files\\WindowsApps\\PythonSoftwareFoundation.Python.3.11_3.11.2032.0_x64__qbz5n2kfra8p0\\Lib\\textwrap.py',
   'PYMODULE'),
  ('threading',
   'C:\\Program '
   'Files\\WindowsApps\\PythonSoftwareFoundation.Python.3.11_3.11.2032.0_x64__qbz5n2kfra8p0\\Lib\\threading.py',
   'PYMODULE'),
  ('token',
   'C:\\Program '
   'Files\\WindowsApps\\PythonSoftwareFoundation.Python.3.11_3.11.2032.0_x64__qbz5n2kfra8p0\\Lib\\token.py',
   'PYMODULE'),
  ('tokenize',
   'C:\\Program '
   'Files\\WindowsApps\\PythonSoftwareFoundation.Python.3.11_3.11.2032.0_x64__qbz5n2kfra8p0\\Lib\\tokenize.py',
   'PYMODULE'),
  ('tracemalloc',
   'C:\\Program '
   'Files\\WindowsApps\\PythonSoftwareFoundation.Python.3.11_3.11.2032.0_x64__qbz5n2kfra8p0\\Lib\\tracemalloc.py',
   'PYMODULE'),
  ('typing',
   'C:\\Program '
   'Files\\WindowsApps\\PythonSoftwareFoundation.Python.3.11_3.11.2032.0_x64__qbz5n2kfra8p0\\Lib\\typing.py',
   'PYMODULE'),
  ('urllib',
   'C:\\Program '
   'Files\\WindowsApps\\PythonSoftwareFoundation.Python.3.11_3.11.2032.0_x64__qbz5n2kfra8p0\\Lib\\urllib\\__init__.py',
   'PYMODULE'),
  ('urllib.error',
   'C:\\Program '
   'Files\\WindowsApps\\PythonSoftwareFoundation.Python.3.11_3.11.2032.0_x64__qbz5n2kfra8p0\\Lib\\urllib\\error.py',
   'PYMODULE'),
  ('urllib.parse',
   'C:\\Program '
   'Files\\WindowsApps\\PythonSoftwareFoundation.Python.3.11_3.11.2032.0_x64__qbz5n2kfra8p0\\Lib\\urllib\\parse.py',
   'PYMODULE'),
  ('urllib.request',
   'C:\\Program '
   'Files\\WindowsApps\\PythonSoftwareFoundation.Python.3.11_3.11.2032.0_x64__qbz5n2kfra8p0\\Lib\\urllib\\request.py',
   'PYMODULE'),
  ('urllib.response',
   'C:\\Program '
   'Files\\WindowsApps\\PythonSoftwareFoundation.Python.3.11_3.11.2032.0_x64__qbz5n2kfra8p0\\Lib\\urllib\\response.py',
   'PYMODULE'),
  ('urllib3',
   'C:\\Users\\wsooi11962\\AppData\\Local\\Packages\\PythonSoftwareFoundation.Python.3.11_qbz5n2kfra8p0\\LocalCache\\local-packages\\Python311\\site-packages\\urllib3\\__init__.py',
   'PYMODULE'),
  ('urllib3._base_connection',
   'C:\\Users\\wsooi11962\\AppData\\Local\\Packages\\PythonSoftwareFoundation.Python.3.11_qbz5n2kfra8p0\\LocalCache\\local-packages\\Python311\\site-packages\\urllib3\\_base_connection.py',
   'PYMODULE'),
  ('urllib3._collections',
   'C:\\Users\\wsooi11962\\AppData\\Local\\Packages\\PythonSoftwareFoundation.Python.3.11_qbz5n2kfra8p0\\LocalCache\\local-packages\\Python311\\site-packages\\urllib3\\_collections.py',
   'PYMODULE'),
  ('urllib3._request_methods',
   'C:\\Users\\wsooi11962\\AppData\\Local\\Packages\\PythonSoftwareFoundation.Python.3.11_qbz5n2kfra8p0\\LocalCache\\local-packages\\Python311\\site-packages\\urllib3\\_request_methods.py',
   'PYMODULE'),
  ('urllib3._version',
   'C:\\Users\\wsooi11962\\AppData\\Local\\Packages\\PythonSoftwareFoundation.Python.3.11_qbz5n2kfra8p0\\LocalCache\\local-packages\\Python311\\site-packages\\urllib3\\_version.py',
   'PYMODULE'),
  ('urllib3.connection',
   'C:\\Users\\wsooi11962\\AppData\\Local\\Packages\\PythonSoftwareFoundation.Python.3.11_qbz5n2kfra8p0\\LocalCache\\local-packages\\Python311\\site-packages\\urllib3\\connection.py',
   'PYMODULE'),
  ('urllib3.connectionpool',
   'C:\\Users\\wsooi11962\\AppData\\Local\\Packages\\PythonSoftwareFoundation.Python.3.11_qbz5n2kfra8p0\\LocalCache\\local-packages\\Python311\\site-packages\\urllib3\\connectionpool.py',
   'PYMODULE'),
  ('urllib3.contrib',
   'C:\\Users\\wsooi11962\\AppData\\Local\\Packages\\PythonSoftwareFoundation.Python.3.11_qbz5n2kfra8p0\\LocalCache\\local-packages\\Python311\\site-packages\\urllib3\\contrib\\__init__.py',
   'PYMODULE'),
  ('urllib3.contrib.socks',
   'C:\\Users\\wsooi11962\\AppData\\Local\\Packages\\PythonSoftwareFoundation.Python.3.11_qbz5n2kfra8p0\\LocalCache\\local-packages\\Python311\\site-packages\\urllib3\\contrib\\socks.py',
   'PYMODULE'),
  ('urllib3.exceptions',
   'C:\\Users\\wsooi11962\\AppData\\Local\\Packages\\PythonSoftwareFoundation.Python.3.11_qbz5n2kfra8p0\\LocalCache\\local-packages\\Python311\\site-packages\\urllib3\\exceptions.py',
   'PYMODULE'),
  ('urllib3.fields',
   'C:\\Users\\wsooi11962\\AppData\\Local\\Packages\\PythonSoftwareFoundation.Python.3.11_qbz5n2kfra8p0\\LocalCache\\local-packages\\Python311\\site-packages\\urllib3\\fields.py',
   'PYMODULE'),
  ('urllib3.filepost',
   'C:\\Users\\wsooi11962\\AppData\\Local\\Packages\\PythonSoftwareFoundation.Python.3.11_qbz5n2kfra8p0\\LocalCache\\local-packages\\Python311\\site-packages\\urllib3\\filepost.py',
   'PYMODULE'),
  ('urllib3.poolmanager',
   'C:\\Users\\wsooi11962\\AppData\\Local\\Packages\\PythonSoftwareFoundation.Python.3.11_qbz5n2kfra8p0\\LocalCache\\local-packages\\Python311\\site-packages\\urllib3\\poolmanager.py',
   'PYMODULE'),
  ('urllib3.response',
   'C:\\Users\\wsooi11962\\AppData\\Local\\Packages\\PythonSoftwareFoundation.Python.3.11_qbz5n2kfra8p0\\LocalCache\\local-packages\\Python311\\site-packages\\urllib3\\response.py',
   'PYMODULE'),
  ('urllib3.util',
   'C:\\Users\\wsooi11962\\AppData\\Local\\Packages\\PythonSoftwareFoundation.Python.3.11_qbz5n2kfra8p0\\LocalCache\\local-packages\\Python311\\site-packages\\urllib3\\util\\__init__.py',
   'PYMODULE'),
  ('urllib3.util.connection',
   'C:\\Users\\wsooi11962\\AppData\\Local\\Packages\\PythonSoftwareFoundation.Python.3.11_qbz5n2kfra8p0\\LocalCache\\local-packages\\Python311\\site-packages\\urllib3\\util\\connection.py',
   'PYMODULE'),
  ('urllib3.util.proxy',
   'C:\\Users\\wsooi11962\\AppData\\Local\\Packages\\PythonSoftwareFoundation.Python.3.11_qbz5n2kfra8p0\\LocalCache\\local-packages\\Python311\\site-packages\\urllib3\\util\\proxy.py',
   'PYMODULE'),
  ('urllib3.util.request',
   'C:\\Users\\wsooi11962\\AppData\\Local\\Packages\\PythonSoftwareFoundation.Python.3.11_qbz5n2kfra8p0\\LocalCache\\local-packages\\Python311\\site-packages\\urllib3\\util\\request.py',
   'PYMODULE'),
  ('urllib3.util.response',
   'C:\\Users\\wsooi11962\\AppData\\Local\\Packages\\PythonSoftwareFoundation.Python.3.11_qbz5n2kfra8p0\\LocalCache\\local-packages\\Python311\\site-packages\\urllib3\\util\\response.py',
   'PYMODULE'),
  ('urllib3.util.retry',
   'C:\\Users\\wsooi11962\\AppData\\Local\\Packages\\PythonSoftwareFoundation.Python.3.11_qbz5n2kfra8p0\\LocalCache\\local-packages\\Python311\\site-packages\\urllib3\\util\\retry.py',
   'PYMODULE'),
  ('urllib3.util.ssl_',
   'C:\\Users\\wsooi11962\\AppData\\Local\\Packages\\PythonSoftwareFoundation.Python.3.11_qbz5n2kfra8p0\\LocalCache\\local-packages\\Python311\\site-packages\\urllib3\\util\\ssl_.py',
   'PYMODULE'),
  ('urllib3.util.ssl_match_hostname',
   'C:\\Users\\wsooi11962\\AppData\\Local\\Packages\\PythonSoftwareFoundation.Python.3.11_qbz5n2kfra8p0\\LocalCache\\local-packages\\Python311\\site-packages\\urllib3\\util\\ssl_match_hostname.py',
   'PYMODULE'),
  ('urllib3.util.ssltransport',
   'C:\\Users\\wsooi11962\\AppData\\Local\\Packages\\PythonSoftwareFoundation.Python.3.11_qbz5n2kfra8p0\\LocalCache\\local-packages\\Python311\\site-packages\\urllib3\\util\\ssltransport.py',
   'PYMODULE'),
  ('urllib3.util.timeout',
   'C:\\Users\\wsooi11962\\AppData\\Local\\Packages\\PythonSoftwareFoundation.Python.3.11_qbz5n2kfra8p0\\LocalCache\\local-packages\\Python311\\site-packages\\urllib3\\util\\timeout.py',
   'PYMODULE'),
  ('urllib3.util.url',
   'C:\\Users\\wsooi11962\\AppData\\Local\\Packages\\PythonSoftwareFoundation.Python.3.11_qbz5n2kfra8p0\\LocalCache\\local-packages\\Python311\\site-packages\\urllib3\\util\\url.py',
   'PYMODULE'),
  ('urllib3.util.util',
   'C:\\Users\\wsooi11962\\AppData\\Local\\Packages\\PythonSoftwareFoundation.Python.3.11_qbz5n2kfra8p0\\LocalCache\\local-packages\\Python311\\site-packages\\urllib3\\util\\util.py',
   'PYMODULE'),
  ('urllib3.util.wait',
   'C:\\Users\\wsooi11962\\AppData\\Local\\Packages\\PythonSoftwareFoundation.Python.3.11_qbz5n2kfra8p0\\LocalCache\\local-packages\\Python311\\site-packages\\urllib3\\util\\wait.py',
   'PYMODULE'),
  ('uuid',
   'C:\\Program '
   'Files\\WindowsApps\\PythonSoftwareFoundation.Python.3.11_3.11.2032.0_x64__qbz5n2kfra8p0\\Lib\\uuid.py',
   'PYMODULE'),
  ('xml',
   'C:\\Program '
   'Files\\WindowsApps\\PythonSoftwareFoundation.Python.3.11_3.11.2032.0_x64__qbz5n2kfra8p0\\Lib\\xml\\__init__.py',
   'PYMODULE'),
  ('xml.dom',
   'C:\\Program '
   'Files\\WindowsApps\\PythonSoftwareFoundation.Python.3.11_3.11.2032.0_x64__qbz5n2kfra8p0\\Lib\\xml\\dom\\__init__.py',
   'PYMODULE'),
  ('xml.dom.NodeFilter',
   'C:\\Program '
   'Files\\WindowsApps\\PythonSoftwareFoundation.Python.3.11_3.11.2032.0_x64__qbz5n2kfra8p0\\Lib\\xml\\dom\\NodeFilter.py',
   'PYMODULE'),
  ('xml.dom.domreg',
   'C:\\Program '
   'Files\\WindowsApps\\PythonSoftwareFoundation.Python.3.11_3.11.2032.0_x64__qbz5n2kfra8p0\\Lib\\xml\\dom\\domreg.py',
   'PYMODULE'),
  ('xml.dom.expatbuilder',
   'C:\\Program '
   'Files\\WindowsApps\\PythonSoftwareFoundation.Python.3.11_3.11.2032.0_x64__qbz5n2kfra8p0\\Lib\\xml\\dom\\expatbuilder.py',
   'PYMODULE'),
  ('xml.dom.minicompat',
   'C:\\Program '
   'Files\\WindowsApps\\PythonSoftwareFoundation.Python.3.11_3.11.2032.0_x64__qbz5n2kfra8p0\\Lib\\xml\\dom\\minicompat.py',
   'PYMODULE'),
  ('xml.dom.minidom',
   'C:\\Program '
   'Files\\WindowsApps\\PythonSoftwareFoundation.Python.3.11_3.11.2032.0_x64__qbz5n2kfra8p0\\Lib\\xml\\dom\\minidom.py',
   'PYMODULE'),
  ('xml.dom.pulldom',
   'C:\\Program '
   'Files\\WindowsApps\\PythonSoftwareFoundation.Python.3.11_3.11.2032.0_x64__qbz5n2kfra8p0\\Lib\\xml\\dom\\pulldom.py',
   'PYMODULE'),
  ('xml.dom.xmlbuilder',
   'C:\\Program '
   'Files\\WindowsApps\\PythonSoftwareFoundation.Python.3.11_3.11.2032.0_x64__qbz5n2kfra8p0\\Lib\\xml\\dom\\xmlbuilder.py',
   'PYMODULE'),
  ('xml.parsers',
   'C:\\Program '
   'Files\\WindowsApps\\PythonSoftwareFoundation.Python.3.11_3.11.2032.0_x64__qbz5n2kfra8p0\\Lib\\xml\\parsers\\__init__.py',
   'PYMODULE'),
  ('xml.parsers.expat',
   'C:\\Program '
   'Files\\WindowsApps\\PythonSoftwareFoundation.Python.3.11_3.11.2032.0_x64__qbz5n2kfra8p0\\Lib\\xml\\parsers\\expat.py',
   'PYMODULE'),
  ('xml.sax',
   'C:\\Program '
   'Files\\WindowsApps\\PythonSoftwareFoundation.Python.3.11_3.11.2032.0_x64__qbz5n2kfra8p0\\Lib\\xml\\sax\\__init__.py',
   'PYMODULE'),
  ('xml.sax._exceptions',
   'C:\\Program '
   'Files\\WindowsApps\\PythonSoftwareFoundation.Python.3.11_3.11.2032.0_x64__qbz5n2kfra8p0\\Lib\\xml\\sax\\_exceptions.py',
   'PYMODULE'),
  ('xml.sax.expatreader',
   'C:\\Program '
   'Files\\WindowsApps\\PythonSoftwareFoundation.Python.3.11_3.11.2032.0_x64__qbz5n2kfra8p0\\Lib\\xml\\sax\\expatreader.py',
   'PYMODULE'),
  ('xml.sax.handler',
   'C:\\Program '
   'Files\\WindowsApps\\PythonSoftwareFoundation.Python.3.11_3.11.2032.0_x64__qbz5n2kfra8p0\\Lib\\xml\\sax\\handler.py',
   'PYMODULE'),
  ('xml.sax.saxutils',
   'C:\\Program '
   'Files\\WindowsApps\\PythonSoftwareFoundation.Python.3.11_3.11.2032.0_x64__qbz5n2kfra8p0\\Lib\\xml\\sax\\saxutils.py',
   'PYMODULE'),
  ('xml.sax.xmlreader',
   'C:\\Program '
   'Files\\WindowsApps\\PythonSoftwareFoundation.Python.3.11_3.11.2032.0_x64__qbz5n2kfra8p0\\Lib\\xml\\sax\\xmlreader.py',
   'PYMODULE'),
  ('zipfile',
   'C:\\Program '
   'Files\\WindowsApps\\PythonSoftwareFoundation.Python.3.11_3.11.2032.0_x64__qbz5n2kfra8p0\\Lib\\zipfile.py',
   'PYMODULE'),
  ('zipimport',
   'C:\\Program '
   'Files\\WindowsApps\\PythonSoftwareFoundation.Python.3.11_3.11.2032.0_x64__qbz5n2kfra8p0\\Lib\\zipimport.py',
   'PYMODULE')])
